<svg xmlns="http://www.w3.org/2000/svg">
    <symbol id="arrow-right" viewBox="0 0 15 14.62">
        <path d="M6.378,3.627l.743-.743a.8.8,0,0,1,1.135,0l6.508,6.5a.8.8,0,0,1,0,1.135L8.256,17.031a.8.8,0,0,1-1.135,0l-.743-.743a.8.8,0,0,1,.013-1.148L10.425,11.3H.8a.8.8,0,0,1-.8-.8V9.422a.8.8,0,0,1,.8-.8h9.622L6.391,4.775A.8.8,0,0,1,6.378,3.627Z" transform="translate(0 -2.647)"/>
    </symbol>
</svg>
